{
	"credit": "Made with Blockbench",
	"parent": "block/block",
	"textures": {
		"1": "block/campfire_log",
		"2": "block/coal_block",
		"particle": "block/campfire_log"
	},
	"elements": [
		{
			"name": "Element",
			"from": [0, -0.5, 12.5],
			"to": [16, 1.5, 14.5],
			"faces": {
				"north": {"uv": [0, 0, 16, 2], "texture": "#1", "cullface": "north"},
				"east": {"uv": [0, 4, 2, 6], "texture": "#1", "cullface": "east"},
				"south": {"uv": [0, 0, 16, 2], "texture": "#1", "cullface": "south"},
				"west": {"uv": [0, 4, 2, 6], "texture": "#1", "cullface": "west"},
				"up": {"uv": [0, 0, 16, 2], "texture": "#1"},
				"down": {"uv": [0, 0, 16, 2], "texture": "#1", "cullface": "down"}
			}
		},
		{
			"name": "Element",
			"from": [0, 3, 13],
			"to": [16, 5, 15],
			"faces": {
				"north": {"uv": [0, 0, 16, 2], "texture": "#1", "cullface": "north"},
				"east": {"uv": [0, 4, 2, 6], "texture": "#1", "cullface": "east"},
				"south": {"uv": [0, 0, 16, 2], "texture": "#1", "cullface": "south"},
				"west": {"uv": [0, 4, 2, 6], "texture": "#1", "cullface": "west"},
				"up": {"uv": [0, 0, 16, 2], "texture": "#1"},
				"down": {"uv": [0, 0, 16, 2], "texture": "#1", "cullface": "down"}
			}
		},
		{
			"name": "Element",
			"from": [-0.5, 3, 1],
			"to": [15.5, 5, 3],
			"faces": {
				"north": {"uv": [0, 0, 16, 2], "texture": "#1", "cullface": "north"},
				"east": {"uv": [0, 4, 2, 6], "texture": "#1", "cullface": "east"},
				"south": {"uv": [0, 0, 16, 2], "texture": "#1", "cullface": "south"},
				"west": {"uv": [0, 4, 2, 6], "texture": "#1", "cullface": "west"},
				"up": {"uv": [0, 0, 16, 2], "texture": "#1"},
				"down": {"uv": [0, 0, 16, 2], "texture": "#1", "cullface": "down"}
			}
		},
		{
			"name": "Element",
			"from": [0, 0, 1],
			"to": [16, 2, 3],
			"faces": {
				"north": {"uv": [0, 2, 16, 4], "texture": "#1", "cullface": "north"},
				"east": {"uv": [2, 6, 0, 4], "texture": "#1", "cullface": "east"},
				"south": {"uv": [0, 2, 16, 4], "texture": "#1", "cullface": "south"},
				"west": {"uv": [0, 4, 2, 6], "texture": "#1", "cullface": "west"},
				"up": {"uv": [0, 2, 16, 4], "texture": "#1"},
				"down": {"uv": [0, 2, 16, 4], "texture": "#1", "cullface": "down"}
			}
		},
		{
			"name": "Element",
			"from": [13, 4, 0],
			"to": [15, 6, 16],
			"faces": {
				"north": {"uv": [0, 4, 2, 6], "texture": "#1", "cullface": "north"},
				"east": {"uv": [16, 2, 0, 0], "texture": "#1", "cullface": "east"},
				"south": {"uv": [0, 4, 2, 6], "texture": "#1", "cullface": "south"},
				"west": {"uv": [0, 0, 16, 2], "texture": "#1", "cullface": "west"},
				"up": {"uv": [0, 0, 16, 2], "texture": "#1", "rotation": 90},
				"down": {"uv": [0, 0, 16, 2], "texture": "#1", "rotation": 90, "cullface": "down"}
			}
		},
		{
			"name": "Element",
			"from": [12.5, 1.5, 0.5],
			"to": [14.5, 3.5, 16.5],
			"faces": {
				"north": {"uv": [0, 4, 2, 6], "texture": "#1", "cullface": "north"},
				"east": {"uv": [16, 4, 0, 2], "texture": "#1", "cullface": "east"},
				"south": {"uv": [0, 4, 2, 6], "texture": "#1", "cullface": "south"},
				"west": {"uv": [0, 2, 16, 4], "texture": "#1", "cullface": "west"},
				"up": {"uv": [0, 2, 16, 4], "texture": "#1", "rotation": 90},
				"down": {"uv": [0, 2, 16, 4], "texture": "#1", "rotation": 90, "cullface": "down"}
			}
		},
		{
			"name": "Element",
			"from": [0.5, 1.5, -0.5],
			"to": [2.5, 3.5, 15.5],
			"faces": {
				"north": {"uv": [0, 4, 2, 6], "texture": "#1", "cullface": "north"},
				"east": {"uv": [16, 4, 0, 2], "texture": "#1", "cullface": "east"},
				"south": {"uv": [0, 4, 2, 6], "texture": "#1", "cullface": "south"},
				"west": {"uv": [0, 2, 16, 4], "texture": "#1", "cullface": "west"},
				"up": {"uv": [0, 2, 16, 4], "texture": "#1", "rotation": 90},
				"down": {"uv": [0, 2, 16, 4], "texture": "#1", "rotation": 90, "cullface": "down"}
			}
		},
		{
			"name": "Element",
			"from": [1, 4, 0],
			"to": [3, 6, 16],
			"faces": {
				"north": {"uv": [0, 4, 2, 6], "texture": "#1", "cullface": "north"},
				"east": {"uv": [16, 4, 0, 2], "texture": "#1", "cullface": "east"},
				"south": {"uv": [0, 4, 2, 6], "texture": "#1", "cullface": "south"},
				"west": {"uv": [0, 2, 16, 4], "texture": "#1", "cullface": "west"},
				"up": {"uv": [0, 2, 16, 4], "texture": "#1", "rotation": 90},
				"down": {"uv": [0, 2, 16, 4], "texture": "#1", "rotation": 90, "cullface": "down"}
			}
		},
		{
			"name": "Element",
			"from": [10, -2, 3],
			"to": [10.001, 8, 13],
			"rotation": {"angle": -45, "axis": "z", "origin": [8, 8, 8]},
			"faces": {
				"north": {"uv": [0, 0, 0, 10], "texture": "#missing"},
				"east": {"uv": [6, 6, 16, 16], "texture": "#1"},
				"south": {"uv": [0, 0, 0, 10], "texture": "#missing"},
				"west": {"uv": [6, 6, 16, 16], "texture": "#1"},
				"up": {"uv": [0, 0, 0, 10], "texture": "#missing"},
				"down": {"uv": [0, 0, 0, 10], "texture": "#missing"}
			}
		},
		{
			"name": "Element",
			"from": [3, -2, 10],
			"to": [13, 8, 10.001],
			"rotation": {"angle": 45, "axis": "x", "origin": [8, 8, 8]},
			"faces": {
				"north": {"uv": [6, 6, 16, 16], "texture": "#1"},
				"south": {"uv": [6, 6, 16, 16], "texture": "#1"}
			}
		},
		{
			"name": "Element",
			"from": [3, 6, 8],
			"to": [13, 6.001, 18],
			"rotation": {"angle": 45, "axis": "x", "origin": [8, 8, 8]},
			"faces": {
				"north": {"uv": [0, 0, 10, 0], "texture": "#missing", "rotation": 180},
				"east": {"uv": [0, 0, 0, 10], "texture": "#missing", "rotation": 90},
				"south": {"uv": [0, 0, 10, 0], "texture": "#missing"},
				"west": {"uv": [0, 0, 0, 10], "texture": "#missing", "rotation": 270},
				"up": {"uv": [6, 6, 16, 16], "texture": "#1"},
				"down": {"uv": [6, 6, 16, 16], "texture": "#1", "rotation": 180}
			}
		},
		{
			"name": "Element",
			"from": [6, -2, 3],
			"to": [6.001, 8, 13],
			"rotation": {"angle": 45, "axis": "z", "origin": [8, 8, 8]},
			"faces": {
				"north": {"uv": [0, 0, 0, 10], "texture": "#missing"},
				"east": {"uv": [6, 6, 16, 16], "texture": "#1"},
				"south": {"uv": [0, 0, 0, 10], "texture": "#missing"},
				"west": {"uv": [6, 6, 16, 16], "texture": "#1"},
				"up": {"uv": [0, 0, 0, 10], "texture": "#missing"},
				"down": {"uv": [0, 0, 0, 10], "texture": "#missing"}
			}
		},
		{
			"name": "Element",
			"from": [1, 0.01, 1],
			"to": [15, 0.01, 14.5],
			"faces": {
				"up": {"uv": [1, 1, 15, 14.5], "texture": "#2", "rotation": 90}
			}
		},
		{
			"name": "Element",
			"from": [3, 3.01, 2.1],
			"to": [13, 5.01, 3.1],
			"faces": {
				"south": {"uv": [6, 7, 16, 9], "texture": "#1", "cullface": "south"},
				"up": {"uv": [6, 6, 7, 16], "texture": "#1", "rotation": 90}
			}
		},
		{
			"name": "Element",
			"from": [3, 3.01, 12.9],
			"to": [13, 5.01, 13.9],
			"faces": {
				"north": {"uv": [6, 7, 16, 9], "texture": "#1", "cullface": "north"},
				"up": {"uv": [15, 6, 16, 16], "texture": "#1", "rotation": 90}
			}
		},
		{
			"name": "Element",
			"from": [12.9, 4.01, 3],
			"to": [13.9, 6.01, 12.5],
			"faces": {
				"west": {"uv": [6, 7, 15.5, 9], "texture": "#1", "cullface": "west"},
				"up": {"uv": [15, 6.5, 16, 16], "texture": "#1"}
			}
		},
		{
			"name": "Element",
			"from": [2.1, 4.01, 3],
			"to": [3.1, 6.01, 12.5],
			"faces": {
				"east": {"uv": [6, 7, 15.5, 9], "texture": "#1", "cullface": "east"},
				"up": {"uv": [6, 6.5, 7, 16], "texture": "#1"}
			}
		}
	]
}
