{
	"credit": "Made by Satellence with Blockbench",
	"parent": "block/block",
	"textures": {
		"3": "block/variants/bookshelf/books",
		"particle": "block/variants/bookshelf/bookshelf"
	},
	"elements": [
		{
			"name": "Book",
			"from": [2.11365, 3, -1.57821],
			"to": [7.61365, 4.5, 2.42179],
			"rotation": {"angle": -22.5, "axis": "y", "origin": [4.86365, 3.75, 0.42179]},
			"faces": {
				"north": {"uv": [9, 0, 9.75, 2.75], "rotation": 270, "texture": "#3", "cullface": "north"},
				"east": {"uv": [9, 2.75, 11, 3.5], "rotation": 180, "texture": "#3", "cullface": "north"},
				"south": {"uv": [11.25, 0, 12, 2.75], "rotation": 90, "texture": "#3", "cullface": "north"},
				"west": {"uv": [9, 2.75, 11, 3.5], "texture": "#3", "cullface": "north"},
				"up": {"uv": [9.5, 0, 11.5, 2.75], "rotation": 90, "texture": "#3", "cullface": "north"},
				"down": {"uv": [9.5, 0, 11.5, 2.75], "rotation": 90, "texture": "#3", "cullface": "north"}
			}
		},
		{
			"name": "Book",
			"from": [2.61365, 1.5, -1.42821],
			"to": [8.11365, 3, 2.57179],
			"rotation": {"angle": 0, "axis": "y", "origin": [4.86365, 3.75, 0.42179]},
			"faces": {
				"north": {"uv": [9, 0, 9.75, 2.75], "rotation": 270, "texture": "#3", "cullface": "north"},
				"east": {"uv": [9, 2.75, 11, 3.5], "rotation": 180, "texture": "#3", "cullface": "north"},
				"south": {"uv": [11.25, 0, 12, 2.75], "rotation": 90, "texture": "#3", "cullface": "north"},
				"west": {"uv": [9, 2.75, 11, 3.5], "texture": "#3", "cullface": "north"},
				"up": {"uv": [9.5, 0, 11.5, 2.75], "rotation": 90, "texture": "#3", "cullface": "north"},
				"down": {"uv": [9.5, 0, 11.5, 2.75], "rotation": 90, "texture": "#3", "cullface": "north"}
			}
		},
		{
			"name": "Book",
			"from": [11.25, 8.5, -1],
			"to": [12.75, 14, 3],
			"rotation": {"angle": 0, "axis": "y", "origin": [11.25, 11.25, -2.5]},
			"faces": {
				"north": {"uv": [0, 3.5, 0.75, 6.25], "texture": "#3", "cullface": "north"},
				"east": {"uv": [0.5, 3.5, 2.5, 6.25], "texture": "#3", "cullface": "north"},
				"south": {"uv": [2.25, 3.5, 3, 6.25], "texture": "#3", "cullface": "north"},
				"west": {"uv": [0.5, 3.5, 2.5, 6.25], "texture": "#3", "cullface": "north"},
				"up": {"uv": [0, 6.25, 2, 7], "rotation": 90, "texture": "#3", "cullface": "north"},
				"down": {"uv": [0, 6.25, 2, 7], "rotation": 270, "texture": "#3", "cullface": "north"}
			}
		},
		{
			"name": "Book",
			"from": [9.25, 8.5, -0.5],
			"to": [10.75, 14, 3.5],
			"rotation": {"angle": 0, "axis": "y", "origin": [11.25, 11.25, -2.5]},
			"faces": {
				"north": {"uv": [0, 3.5, 0.75, 6.25], "texture": "#3", "cullface": "north"},
				"east": {"uv": [0.5, 3.5, 2.5, 6.25], "texture": "#3", "cullface": "north"},
				"south": {"uv": [2.25, 3.5, 3, 6.25], "texture": "#3", "cullface": "north"},
				"west": {"uv": [0.5, 3.5, 2.5, 6.25], "texture": "#3", "cullface": "north"},
				"up": {"uv": [0, 6.25, 2, 7], "rotation": 90, "texture": "#3", "cullface": "north"},
				"down": {"uv": [0, 6.25, 2, 7], "rotation": 270, "texture": "#3", "cullface": "north"}
			}
		},
		{
			"name": "Book",
			"from": [6.55656, 8.5, -0.7912],
			"to": [8.05656, 14, 3.2088],
			"rotation": {"angle": 0, "axis": "y", "origin": [8.30656, 11.25, 1.2088]},
			"faces": {
				"north": {"uv": [0, 0, 0.75, 2.75], "texture": "#3", "cullface": "north"},
				"east": {"uv": [0.5, 0, 2.5, 2.75], "texture": "#3", "cullface": "north"},
				"south": {"uv": [2.25, 0, 3, 2.75], "texture": "#3", "cullface": "north"},
				"west": {"uv": [0.5, 0, 2.5, 2.75], "texture": "#3", "cullface": "north"},
				"up": {"uv": [0, 2.75, 2, 3.5], "rotation": 90, "texture": "#3", "cullface": "north"},
				"down": {"uv": [0, 2.75, 2, 3.5], "rotation": 270, "texture": "#3", "cullface": "north"}
			}
		},
		{
			"name": "Book",
			"from": [4.95656, 8.5, -1.0412],
			"to": [6.45656, 14, 2.9588],
			"rotation": {"angle": 0, "axis": "y", "origin": [8.30656, 11.25, 1.2088]},
			"faces": {
				"north": {"uv": [0, 0, 0.75, 2.75], "texture": "#3", "cullface": "north"},
				"east": {"uv": [0.5, 0, 2.5, 2.75], "texture": "#3", "cullface": "north"},
				"south": {"uv": [2.25, 0, 3, 2.75], "texture": "#3", "cullface": "north"},
				"west": {"uv": [0.5, 0, 2.5, 2.75], "texture": "#3", "cullface": "north"},
				"up": {"uv": [0, 2.75, 2, 3.5], "rotation": 90, "texture": "#3", "cullface": "north"},
				"down": {"uv": [0, 2.75, 2, 3.5], "rotation": 270, "texture": "#3", "cullface": "north"}
			}
		},
		{
			"name": "Book",
			"from": [3.35656, 8.5, -0.6412],
			"to": [4.85656, 14, 3.3588],
			"rotation": {"angle": 0, "axis": "y", "origin": [8.30656, 11.25, 1.2088]},
			"faces": {
				"north": {"uv": [0, 0, 0.75, 2.75], "texture": "#3", "cullface": "north"},
				"east": {"uv": [0.5, 0, 2.5, 2.75], "texture": "#3", "cullface": "north"},
				"south": {"uv": [2.25, 0, 3, 2.75], "texture": "#3", "cullface": "north"},
				"west": {"uv": [0.5, 0, 2.5, 2.75], "texture": "#3", "cullface": "north"},
				"up": {"uv": [0, 2.75, 2, 3.5], "rotation": 90, "texture": "#3", "cullface": "north"},
				"down": {"uv": [0, 2.75, 2, 3.5], "rotation": 270, "texture": "#3", "cullface": "north"}
			}
		},
		{
			"name": "Book",
			"from": [8.55, 1.5, -0.55],
			"to": [10.05, 7, 3.45],
			"rotation": {"angle": 0, "axis": "y", "origin": [11, 4.25, 1.75]},
			"faces": {
				"north": {"uv": [3, 0, 3.75, 2.75], "texture": "#3", "cullface": "north"},
				"east": {"uv": [3.5, 0, 5.5, 2.75], "texture": "#3", "cullface": "north"},
				"south": {"uv": [5.25, 0, 6, 2.75], "texture": "#3", "cullface": "north"},
				"west": {"uv": [3.5, 0, 5.5, 2.75], "texture": "#3", "cullface": "north"},
				"up": {"uv": [3, 2.75, 5, 3.5], "rotation": 90, "texture": "#3", "cullface": "north"},
				"down": {"uv": [3, 2.75, 5, 3.5], "rotation": 270, "texture": "#3", "cullface": "north"}
			}
		},
		{
			"name": "Book",
			"from": [10.05, 1.5, -0.8],
			"to": [11.55, 7, 3.2],
			"rotation": {"angle": 0, "axis": "y", "origin": [11, 4.25, 1.75]},
			"faces": {
				"north": {"uv": [3, 0, 3.75, 2.75], "texture": "#3", "cullface": "north"},
				"east": {"uv": [3.5, 0, 5.5, 2.75], "texture": "#3", "cullface": "north"},
				"south": {"uv": [5.25, 0, 6, 2.75], "texture": "#3", "cullface": "north"},
				"west": {"uv": [3.5, 0, 5.5, 2.75], "texture": "#3", "cullface": "north"},
				"up": {"uv": [3, 2.75, 5, 3.5], "rotation": 90, "texture": "#3", "cullface": "north"},
				"down": {"uv": [3, 2.75, 5, 3.5], "rotation": 270, "texture": "#3", "cullface": "north"}
			}
		},
		{
			"name": "Book",
			"from": [11.55, 1.5, -1.05],
			"to": [13.05, 7, 2.95],
			"rotation": {"angle": 0, "axis": "y", "origin": [11, 4.25, 1.75]},
			"faces": {
				"north": {"uv": [3, 0, 3.75, 2.75], "texture": "#3", "cullface": "north"},
				"east": {"uv": [3.5, 0, 5.5, 2.75], "texture": "#3", "cullface": "north"},
				"south": {"uv": [5.25, 0, 6, 2.75], "texture": "#3", "cullface": "north"},
				"west": {"uv": [3.5, 0, 5.5, 2.75], "texture": "#3", "cullface": "north"},
				"up": {"uv": [3, 2.75, 5, 3.5], "rotation": 90, "texture": "#3", "cullface": "north"},
				"down": {"uv": [3, 2.75, 5, 3.5], "rotation": 270, "texture": "#3", "cullface": "north"}
			}
		}
	]
}
